%{
The music and poetry produced by this source code are believed to be in the public domain in the United States.
The source code itself is licensed under a Creative Commons Attribution-NonCommercial 4.0 International License:
http://creativecommons.org/licenses/by-nc/4.0/

Musicam Ecclesiae - sites.google.com/site/musicamecclesiae
%}

\version "2.22.2"
\include "english.ly"
\include "hymn_definitions.ly"
\header {
  title = \markup{\override #'(font-name . "Calluna Semibold"){ \abs-fontsize #18 "Be Thou My Vision"}}
  poet = \markup "SLANE, 10 10 9 10"
  composer = \markup "Tr. Mary E Byrne, Eleanor H Hull"
  tagline = \markup ""
}
refs = \markup {
  \fontsize #-3 {
    \left-column {
      \wordwrap {
        Text: \italic "Rop tú mo Baile," D. Forgaill, 6th cent.; Tr. Mary E. Byrne, 1905; versified Eleanor H. Hull, 1912
      }
      \wordwrap {
        Music: SLANE, 10 10 9 10, Irish traditional
      }
    }
  }
}

top = \markup {
\fill-line {
      \column {
          \line {SLANE 10 10 9 10}
      }
      \column{
      \line {Irish traditional}
      }
}
}

bottom = \markup  {
 \fill-line {
   \null 
   \right-column {
     \line { \italic "Rop tú mo Baile," D. Forgaill, 6th cent.}
     \line { tr. M.E. Byrne, 1905; versified E.H. Hull, 1912}
   }
  } 
}

\paper {
  page-count = 1
}

global = {
  \key ef \major
  \time 3/4
  \autoBeamOff
  \set Staff.midiInstrument = "church organ"

}

melody = \relative c' {
  \global
  ef4 ef f8[ ef] |
  c4 bf bf8[ c] |
  ef4 ef f |
  g2. | \break

  f4 f f |
  f g bf |
  c bf g |
  bf2. | \break

  c4 c8[ d] ef[ d] |
  c4 bf g |
  bf ef, d |
  c2( bf4) | \break
  
  ef4 g bf |
  c8[ bf] g4 ef8[ g] |
  f4 ef ef |
  ef2. \bar "|."
}

alto = \relative c' {
  \global
  bf4 bf c |
  g bf bf8[ c] |
  c4 c ef |
  ef2. |

  bf4 ef d |
  c d ef |
  ef f ef |
  ef( d g) |

  af4 af g |
  g2 d4 |
  d c bf |
  c2( bf4) |

  c4 ef d |
  ef bf4 bf |
  c c c |
  bf2.
}

tenor = \relative c' {
  \global
  g4 g af |
  ef f g |
  g g c |
  bf2. |
  
  f4 a bf |
  f bf g |
  g f bf |
  bf2( d4) |
  
  c4 c c |
  g d' bf |
  g g f |
  g( af f) |
  
  g ef f |
  ef ef ef |
  af g f |
  g2.
}

bass = \relative c {
  \global
  ef4 ef af, |
  c d ef |
  c bf af |
  <<{\voiceTwo ef'2.}\\{\voiceFour \tiny s2 g8[ ef] }>>
  
  d4 c bf |
  a g ef' |
  c d ef |
  bf2( bf'4) |
  
  af4 f c8[ d] |
  ef4 g g |
  bf, c d |
  ef( f d) |
  
  c4 c bf8[ af] |
  g4 ef g |
  af8[ bf] c4 af |
  ef'2.
}

verseOne = \lyricmode {
  \vOne
Be thou my vi -- sion, O Lord of my heart;
Naught be all else to me, save that thou art.
Thou my best thought, in the day and the night,
Wak -- ing or sleep -- ing, thy pre -- sence my light.
}

verseTwo = \lyricmode {
  \vTwo
Be thou my Wis -- dom, and thou my true Word;
I ev -- er with thee and thou with me, Lord;
Thou my great Fa -- ther, and I thy true son;
Thou in me dwell -- ing, and I with thee one.
}

verseThree = \lyricmode {
  \vThree
Be thou my breast -- plate, my sword for the fight;
Be thou my ar -- mour and be thou my might;
Thou my soul’s shel -- ter, and thou my high tow'r:
Raise thou me heav'n -- ward, O pow'r of my pow'r.
}

verseFour = \lyricmode {
	\vFour
Rich -- es I heed not, nor man’s emp -- ty praise,
Thou mine in -- her -- i -- tance, through all my days:
Thou and thou on -- ly, the first in my heart,
High King of Heav -- en, my trea -- sure thou art.
}

verseFive = \lyricmode {
	\vFive
High King of heav -- en, when bat -- tle is done,
Grant Heav -- en’s joys to me, O bright Heav'n’s Sun!
Christ of my own heart, what -- ev -- er be -- fall,
Still be my vi -- sion, O rul -- er of all.
}

#(set-global-staff-size 20)
\book {
  \include "hymn_paper.ly"
  \header {
    tagline = ""
  }
  %\top
  \score {
    \new ChoirStaff <<
      \new Staff  <<
        \new Voice = "soprano" { \voiceOne \melody }
        \new Voice = "alto" { \voiceTwo \alto }
      >>
      \new Lyrics  \lyricsto soprano \verseOne
      \new Lyrics  \lyricsto soprano \verseTwo
      \new Lyrics  \lyricsto soprano \verseThree
      \new Lyrics \lyricsto soprano \verseFour
      \new Lyrics \lyricsto soprano \verseFive
      \new Staff  <<
        \clef bass
        \new Voice = "tenor" { \voiceOne \tenor }
        \new Voice = "bass" { \voiceTwo \bass }
      >>
    >>
%   \include "hymn_layout.ly"
  }
  %\bottom
  \refs
}

%%%%%%
%%%%%%
%%%%%%
#(set-global-staff-size 16)
#(define output-suffix "Hymnal")
\book {
  \include "lilypond-book-preamble.ly"
  \include "hymn_hymnal_paper.ly"
  \header {
    tagline = ""
  }
  %\top
  \score { %\transpose c d
    \new ChoirStaff <<
      \new Staff  <<
        \new Voice = "soprano" { \voiceOne \melody }
        \new Voice = "alto" { \voiceTwo \alto }
      >>
      \new Lyrics  \lyricsto soprano \verseOne
      \new Lyrics  \lyricsto soprano \verseTwo
      \new Lyrics  \lyricsto soprano \verseThree
      \new Lyrics \lyricsto soprano \verseFour
      \new Lyrics \lyricsto soprano \verseFive
      \new Staff  <<
        \clef bass
        \new Voice = "tenor" { \voiceOne \tenor }
        \new Voice = "bass" { \voiceTwo \bass }
      >>
    >>
   \include "hymn_hymnal_layout.ly"
  }    
  \refs
  %\bottom
}
%%%%%%
%%%%%%
%%%%%%
#(define output-suffix "Melody")
\book {
  \include "lilypond-book-preamble.ly"
%  \include "hymn_melody_paper.ly"
  \include "hymn_paper.ly"
  %\top
  \score {
    %\transpose c bf,
    <<
      \new Voice = "tune" {
        \melody
      }
      \new Lyrics \lyricsto "tune" { \verseOne }
      \new Lyrics \lyricsto "tune" { \verseTwo }
      \new Lyrics \lyricsto "tune" { \verseThree }
      \new Lyrics \lyricsto "tune" { \verseFour }
      \new Lyrics \lyricsto "tune" { \verseFive}
    >>
    \include "hymn_melody_layout.ly"
  }
  \markup { 
    \vspace #0.5 
  }
 % \bottom
 \refs
}
