
\version "2.18.2"

%%%%%%%%%%%

\paper {
  indent=0\mm
  line-width=4.5\in
  oddFooterMarkup=##f
  oddHeaderMarkup=##f
  bookTitleMarkup = ##f
  scoreTitleMarkup = ##f

}

%%%%%%%%%%%

#(set-global-staff-size 20)

%%%%%%%%%%%
