\relax 
\providecommand\zref@newlabel[2]{}
\providecommand*{\memsetcounter}[2]{}
\zref@newlabel{stop-0-1}{\posx{5027135}\posy{24035004}}
\zref@newlabel{stop-0-2}{\posx{6435847}\posy{24035004}}
\zref@newlabel{stop-0-3}{\posx{12398064}\posy{24035004}}
\zref@newlabel{stop-0-4}{\posx{14486583}\posy{24035004}}
\zref@newlabel{stop-0-5}{\posx{15818344}\posy{24035004}}
\zref@newlabel{stop-0-6}{\posx{16993096}\posy{24035004}}
\zref@newlabel{stop-0-7}{\posx{17994177}\posy{24035004}}
\zref@newlabel{stop-0-8}{\posx{19024508}\posy{24035004}}
\zref@newlabel{stop-0-9}{\posx{20078185}\posy{24035004}}
\zref@newlabel{stop-0-10}{\posx{21248349}\posy{24035004}}
\zref@newlabel{stop-1-1}{\posx{4824034}\posy{33752793}}
\zref@newlabel{stop-1-2}{\posx{6461850}\posy{33752793}}
\zref@newlabel{stop-1-3}{\posx{7712998}\posy{33752793}}
\zref@newlabel{stop-1-4}{\posx{10264946}\posy{33752793}}
\zref@newlabel{stop-1-5}{\posx{12359839}\posy{33752793}}
\zref@newlabel{stop-1-6}{\posx{14513408}\posy{33752793}}
\zref@newlabel{stop-1-7}{\posx{15164836}\posy{33752793}}
\zref@newlabel{stop-1-8}{\posx{16738593}\posy{33752793}}
\zref@newlabel{stop-1-9}{\posx{18139824}\posy{33752793}}
\zref@newlabel{stop-1-10}{\posx{19654597}\posy{33752793}}
\zref@newlabel{stop-1-11}{\posx{21109070}\posy{33752793}}
\memsetcounter{lastsheet}{4}
\memsetcounter{lastpage}{4}
\gdef \@abspage@last{4}
