\relax 
\providecommand\zref@newlabel[2]{}
\providecommand*{\memsetcounter}[2]{}
\zref@newlabel{stop-0-1}{\posx{5027135}\posy{23248572}}
\zref@newlabel{stop-0-2}{\posx{11875277}\posy{23248572}}
\zref@newlabel{stop-0-3}{\posx{13405628}\posy{23248572}}
\zref@newlabel{stop-0-4}{\posx{14888683}\posy{23248572}}
\zref@newlabel{stop-0-5}{\posx{16231604}\posy{23248572}}
\zref@newlabel{stop-0-6}{\posx{17400855}\posy{23248572}}
\zref@newlabel{stop-0-7}{\posx{18560276}\posy{23248572}}
\zref@newlabel{stop-0-8}{\posx{19782122}\posy{23248572}}
\zref@newlabel{stop-0-9}{\posx{21150797}\posy{23248572}}
\zref@newlabel{stop-1-1}{\posx{5055971}\posy{16432828}}
\zref@newlabel{stop-1-2}{\posx{10643355}\posy{16432828}}
\zref@newlabel{stop-1-3}{\posx{13000326}\posy{16432828}}
\zref@newlabel{stop-1-4}{\posx{14926366}\posy{16432828}}
\zref@newlabel{stop-1-5}{\posx{16229303}\posy{16432828}}
\zref@newlabel{stop-1-6}{\posx{17647575}\posy{16432828}}
\zref@newlabel{stop-1-7}{\posx{19460374}\posy{16432828}}
\zref@newlabel{stop-1-8}{\posx{21038375}\posy{16432828}}
\memsetcounter{lastsheet}{4}
\memsetcounter{lastpage}{4}
\gdef \@abspage@last{4}
